{
    "swagger": "2.0",
    "info": {
        "title": "CoDR API",
        "description": "Code vizualizer & recommender for various competitions, their solutions and participants.",
        "version": "1.0.0"
    },
    "host": "fenrir.info.uaic.ro",
    "schemes": [
        "https"
    ],
    "basePath": "/v2",
    "produces": [
        "application/json"
    ],
    "paths": {
        "/users": {
            "get": {
                "summary": "User information",
                "operationId": "getUsers",
                "description": "The users endpoint returns information about the *CoDR* users registered into the system. The response includes username, email and interests of each user.\n",
                "tags": [
                    "users"
                ],
                "produces": [
                    "application/json",
                    "application/xml"
                ],
                "responses": {
                    "200": {
                        "description": "An array of users",
                        "schema": {
                            "type": "array",
                            "items": {
                                "$ref": "#/definitions/User"
                            }
                        }
                    },
                    "default": {
                        "description": "Unexpected error",
                        "schema": {
                            "$ref": "#/definitions/Error"
                        }
                    }
                }
            },
            "post": {
                "tags": [
                    "users"
                ],
                "summary": "Create user",
                "operationId": "createUser",
                "description": "Store a new user into the system\n",
                "consumes": [
                    "application/json",
                    "application/xml"
                ],
                "produces": [
                    "application/json",
                    "application/xml"
                ],
                "parameters": [
                    {
                        "in": "body",
                        "name": "body",
                        "description": "User object that needs to be added",
                        "required": true,
                        "schema": {
                            "$ref": "#/definitions/User"
                        }
                    }
                ],
                "responses": {
                    "200": {
                        "description": "Operation successful"
                    },
                    "default": {
                        "description": "Unexpected error",
                        "schema": {
                            "$ref": "#/definitions/Error"
                        }
                    }
                }
            }
        },
        "/users/{id}": {
            "get": {
                "tags": [
                    "users"
                ],
                "summary": "User information",
                "description": "Show information about the user with id\n",
                "operationId": "getUserById",
                "produces": [
                    "application/json",
                    "application/xml"
                ],
                "parameters": [
                    {
                        "in": "path",
                        "name": "id",
                        "description": "id of the user",
                        "required": true,
                        "type": "integer",
                        "format": "int64"
                    }
                ],
                "responses": {
                    "404": {
                        "description": "User not found"
                    }
                }
            },
            "put": {
                "tags": [
                    "users"
                ],
                "summary": "Updated user",
                "operationId": "updateUser",
                "description": "Update user information. This operation can only be done by the logged in user\n",
                "produces": [
                    "application/json",
                    "application/xml"
                ],
                "parameters": [
                    {
                        "in": "path",
                        "name": "id",
                        "description": "id of the user to be updated",
                        "required": true,
                        "type": "integer",
                        "format": "int64"
                    },
                    {
                        "in": "body",
                        "name": "body",
                        "description": "Updated user object",
                        "required": false,
                        "schema": {
                            "$ref": "#/definitions/User"
                        }
                    }
                ],
                "responses": {
                    "400": {
                        "description": "Invalid user id supplied"
                    },
                    "404": {
                        "description": "User not found"
                    }
                }
            },
            "delete": {
                "tags": [
                    "users"
                ],
                "summary": "Delete user",
                "description": "Delete user information. This operation can only be done by the logged in user\n",
                "operationId": "deleteUser",
                "produces": [
                    "application/json",
                    "application/xml"
                ],
                "parameters": [
                    {
                        "in": "path",
                        "name": "id",
                        "description": "id of the user to be deleted",
                        "required": true,
                        "type": "integer",
                        "format": "int64"
                    }
                ],
                "responses": {
                    "400": {
                        "description": "Invalid user id supplied"
                    },
                    "404": {
                        "description": "User not found"
                    }
                }
            }
        },
        "/tags": {
            "get": {
                "summary": "Tags information",
                "description": "The Tags endpoint returns information about the *CoDR* tags available. The response includes tag names with it's associated description\n",
                "tags": [
                    "tags"
                ],
                "produces": [
                    "application/json",
                    "application/xml"
                ],
                "responses": {
                    "200": {
                        "description": "An array of tags",
                        "schema": {
                            "type": "array",
                            "items": {
                                "$ref": "#/definitions/Tag"
                            }
                        }
                    },
                    "default": {
                        "description": "Unexpected error",
                        "schema": {
                            "$ref": "#/definitions/Error"
                        }
                    }
                }
            },
            "post": {
                "tags": [
                    "tags"
                ],
                "summary": "Create new tag",
                "operationId": "createTag",
                "description": "Store a new tag into the system\n",
                "consumes": [
                    "application/json",
                    "application/xml"
                ],
                "produces": [
                    "application/json",
                    "application/xml"
                ],
                "parameters": [
                    {
                        "in": "body",
                        "name": "body",
                        "description": "Tag object that needs to be added",
                        "required": true,
                        "schema": {
                            "$ref": "#/definitions/Tag"
                        }
                    }
                ],
                "responses": {
                    "200": {
                        "description": "Operation successful"
                    },
                    "default": {
                        "description": "Unexpected error",
                        "schema": {
                            "$ref": "#/definitions/Error"
                        }
                    }
                }
            }
        },
        "/tags/{name}": {
            "get": {
                "tags": [
                    "tags"
                ],
                "summary": "Tag information",
                "description": "Retrieve information for the tag with name. Tags endpoint provides tag description for the given tag\n",
                "operationId": "getTagByName",
                "produces": [
                    "application/json",
                    "application/xml"
                ],
                "parameters": [
                    {
                        "in": "path",
                        "name": "name",
                        "description": "name for the tag to be retrieved",
                        "required": true,
                        "type": "string"
                    },
                    {
                        "in": "query",
                        "name": "categoryId",
                        "description": "category id to find tags by",
                        "required": false,
                        "type": "string"
                    }
                ],
                "responses": {
                    "200": {
                        "examples": {
                            "application/json": [
                                {
                                    "name": "HTML5",
                                    "description": "Learn How You Can Create Awesome Websites Using HTML5. Learn Basic Concepts Of A Markup Language, Basic Building Blocks Of Web Design And Style."
                                },
                                {
                                    "name": "CSS",
                                    "description": "CSS stands for Cascading Style Sheets. CSS describes how HTML elements are to be displayed on screen, paper, or in other media. CSS saves a lot of work. It can control the layout of multiple web pages all at once."
                                }
                            ]
                        },
                        "description": "Operation successful"
                    },
                    "404": {
                        "description": "Tag not found"
                    }
                }
            },
            "put": {
                "tags": [
                    "tags"
                ],
                "summary": "Updated tag",
                "description": "Update a ag object",
                "operationId": "updateTag",
                "produces": [
                    "application/json",
                    "application/xml"
                ],
                "parameters": [
                    {
                        "in": "path",
                        "name": "name",
                        "description": "Name of the tag to be updated\n",
                        "required": true,
                        "type": "string"
                    },
                    {
                        "in": "body",
                        "name": "body",
                        "description": "Updated tag object",
                        "required": false,
                        "schema": {
                            "$ref": "#/definitions/User"
                        }
                    }
                ],
                "responses": {
                    "400": {
                        "description": "Invalid Tag supplied"
                    },
                    "404": {
                        "description": "tag not found"
                    }
                }
            },
            "delete": {
                "tags": [
                    "tags"
                ],
                "summary": "Delete tag",
                "description": "Delete an existing tag. This operation can only be done by the  logged in user\n",
                "operationId": "deleteTag",
                "produces": [
                    "application/json",
                    "application/xml"
                ],
                "parameters": [
                    {
                        "in": "path",
                        "name": "name",
                        "description": "name of the tag to be deleted",
                        "required": true,
                        "type": "string"
                    }
                ],
                "responses": {
                    "400": {
                        "description": "Invalid tag supplied"
                    },
                    "404": {
                        "description": "Tag not found"
                    }
                }
            }
        },
        "/categories": {
            "get": {
                "summary": "Categories information",
                "description": "The categories endpoint returns information about the *CoDR* existent categories. The response includes name of the category and it's associated id\n",
                "tags": [
                    "categories"
                ],
                "produces": [
                    "application/json",
                    "application/xml"
                ],
                "responses": {
                    "200": {
                        "examples": {
                            "application/json": [
                                {
                                    "name": "HTML5",
                                    "description": "Learn How You Can Create Awesome Websites Using HTML5. Learn Basic Concepts Of A Markup Language, Basic Building Blocks Of Web Design And Style."
                                },
                                {
                                    "name": "CSS",
                                    "description": "CSS stands for Cascading Style Sheets. CSS describes how HTML elements are to be displayed on screen, paper, or in other media. CSS saves a lot of work. It can control the layout of multiple web pages all at once."
                                }
                            ]
                        },
                        "description": "An array of categories",
                        "schema": {
                            "type": "array",
                            "items": {
                                "$ref": "#/definitions/Category"
                            }
                        }
                    },
                    "default": {
                        "description": "Unexpected error",
                        "schema": {
                            "$ref": "#/definitions/Error"
                        }
                    }
                }
            },
            "post": {
                "tags": [
                    "categories"
                ],
                "summary": "Create new category",
                "operationId": "createCategory",
                "description": "Store a new category into the system\n",
                "consumes": [
                    "application/json",
                    "application/xml"
                ],
                "produces": [
                    "application/json",
                    "application/xml"
                ],
                "parameters": [
                    {
                        "in": "body",
                        "name": "body",
                        "description": "Category object that needs to be added",
                        "required": true,
                        "schema": {
                            "$ref": "#/definitions/Category"
                        }
                    }
                ],
                "responses": {
                    "200": {
                        "description": "Operation successful"
                    },
                    "default": {
                        "description": "Unexpected error",
                        "schema": {
                            "$ref": "#/definitions/Error"
                        }
                    }
                }
            }
        },
        "/categories/{id}": {
            "get": {
                "tags": [
                    "categories"
                ],
                "summary": "Category information",
                "description": "Retrieve information for the category with id\n",
                "operationId": "getCategoryById",
                "produces": [
                    "application/json",
                    "application/xml"
                ],
                "parameters": [
                    {
                        "in": "path",
                        "name": "id",
                        "description": "id for the category to be retrieved",
                        "required": true,
                        "type": "integer",
                        "format": "int64"
                    }
                ],
                "responses": {
                    "404": {
                        "description": "Category not found"
                    }
                }
            },
            "put": {
                "tags": [
                    "categories"
                ],
                "summary": "Update category",
                "description": "Update information of a category. This operation can only be done by  the logged in user.\n",
                "operationId": "updateCategory",
                "produces": [
                    "application/json",
                    "application/xml"
                ],
                "parameters": [
                    {
                        "in": "path",
                        "name": "id",
                        "description": "category id to be updated",
                        "required": true,
                        "type": "integer",
                        "format": "int64"
                    },
                    {
                        "in": "body",
                        "name": "body",
                        "description": "Updated category object",
                        "required": false,
                        "schema": {
                            "$ref": "#/definitions/User"
                        }
                    }
                ],
                "responses": {
                    "400": {
                        "description": "Invalid category supplied"
                    },
                    "404": {
                        "description": "User not found"
                    }
                }
            },
            "delete": {
                "tags": [
                    "categories"
                ],
                "summary": "Delete category",
                "description": "Delete a category with the id. This can only be done by the logged in user.\n",
                "operationId": "deleteCategory",
                "produces": [
                    "application/json",
                    "application/xml"
                ],
                "parameters": [
                    {
                        "in": "path",
                        "name": "id",
                        "description": "category id that needs to be deleted",
                        "required": true,
                        "type": "integer",
                        "format": "int64"
                    }
                ],
                "responses": {
                    "400": {
                        "description": "Invalid category supplied"
                    },
                    "404": {
                        "description": "Category not found"
                    }
                }
            }
        },
        "/contests": {
            "get": {
                "summary": "Contests information",
                "description": "The contests endpoint returns information about the *CoDR* contests  existent in the system. The response includes a list of all contests  existent into the system with complete information regarding the category, start and end date of the competition, number of participants, difficulty, acceptance and a list of tags associtated to the regarding contest\n",
                "tags": [
                    "contests"
                ],
                "produces": [
                    "application/json",
                    "application/xml"
                ],
                "parameters": [
                    {
                        "in": "query",
                        "name": "tags",
                        "description": "tags to filter by",
                        "required": false,
                        "type": "array",
                        "items": {
                            "type": "string"
                        },
                        "collectionFormat": "multi"
                    },
                    {
                        "in": "query",
                        "name": "difficulty",
                        "description": "difficulty to filter by",
                        "required": false,
                        "type": "integer",
                        "format": "int32"
                    },
                    {
                        "in": "query",
                        "name": "acceptance",
                        "description": "acceptance to filter by",
                        "required": false,
                        "type": "number",
                        "format": "float"
                    },
                    {
                        "in": "query",
                        "name": "numberOfParticipants",
                        "description": "number of participants to filter by",
                        "required": false,
                        "type": "integer",
                        "format": "int32"
                    },
                    {
                        "in": "query",
                        "name": "categoryId",
                        "description": "category id to filter by",
                        "required": false,
                        "type": "string"
                    }
                ],
                "responses": {
                    "200": {
                        "description": "An array of contests",
                        "schema": {
                            "type": "array",
                            "items": {
                                "$ref": "#/definitions/Contest"
                            }
                        }
                    },
                    "default": {
                        "description": "Unexpected error",
                        "schema": {
                            "$ref": "#/definitions/Error"
                        }
                    }
                }
            },
            "post": {
                "tags": [
                    "contests"
                ],
                "summary": "Create new contest",
                "operationId": "createContest",
                "description": "Store a new contest into the system.\n",
                "consumes": [
                    "application/json",
                    "application/xml"
                ],
                "produces": [
                    "application/json",
                    "application/xml"
                ],
                "parameters": [
                    {
                        "in": "body",
                        "name": "body",
                        "description": "Contest object that needs to be added\n",
                        "required": true,
                        "schema": {
                            "$ref": "#/definitions/Contest"
                        }
                    }
                ],
                "responses": {
                    "200": {
                        "description": "Operation successful"
                    },
                    "default": {
                        "description": "Unexpected error",
                        "schema": {
                            "$ref": "#/definitions/Error"
                        }
                    }
                }
            }
        },
        "/contests/{id}": {
            "get": {
                "tags": [
                    "contests"
                ],
                "summary": "Categories Information",
                "description": "Retrieve information for the contest with id.\n",
                "operationId": "getContestById",
                "produces": [
                    "application/json",
                    "application/xml"
                ],
                "parameters": [
                    {
                        "in": "path",
                        "name": "id",
                        "description": "id for the contest to be retrieved",
                        "required": true,
                        "type": "integer",
                        "format": "int64"
                    }
                ],
                "responses": {
                    "404": {
                        "description": "Contest not found"
                    }
                }
            },
            "put": {
                "tags": [
                    "contests"
                ],
                "summary": "Update contest",
                "description": "Update information about a existent competition. This operation can only be done  by the logged in user\n",
                "operationId": "updateContest",
                "produces": [
                    "application/json",
                    "application/xml"
                ],
                "parameters": [
                    {
                        "in": "path",
                        "name": "id",
                        "description": "id of the contest to be updated",
                        "required": true,
                        "type": "integer",
                        "format": "int64"
                    },
                    {
                        "in": "body",
                        "name": "body",
                        "description": "Updated contest object",
                        "required": false,
                        "schema": {
                            "$ref": "#/definitions/User"
                        }
                    }
                ],
                "responses": {
                    "400": {
                        "description": "Invalid contest supplied"
                    },
                    "404": {
                        "description": "Contest not found"
                    }
                }
            },
            "delete": {
                "tags": [
                    "contests"
                ],
                "summary": "Delete contest",
                "description": "Delete an existend contest. This can only be done by the logged in user\n",
                "operationId": "deleteContest",
                "produces": [
                    "application/json",
                    "application/xml"
                ],
                "parameters": [
                    {
                        "in": "path",
                        "name": "id",
                        "description": "id of the contest to be deleted",
                        "required": true,
                        "type": "integer",
                        "format": "int64"
                    }
                ],
                "responses": {
                    "400": {
                        "description": "Invalid contest supplied"
                    },
                    "404": {
                        "description": "Contest not found"
                    }
                }
            }
        },
        "/solutions": {
            "get": {
                "summary": "Solutions information",
                "description": "The solutions endpoint returns information about the *CoDR* solutions. Solutions can include a reference url for the code repository or a text solution. Among this it will contain information regarding associated tags, programming language, submission date and the contest in which it was submitted.\n",
                "tags": [
                    "solutions"
                ],
                "produces": [
                    "application/json",
                    "application/xml"
                ],
                "parameters": [
                    {
                        "in": "query",
                        "name": "language",
                        "description": "language to filter by",
                        "required": false,
                        "type": "string"
                    },
                    {
                        "in": "query",
                        "name": "codeRepository",
                        "description": "code repository to filter by",
                        "required": false,
                        "type": "string"
                    },
                    {
                        "in": "query",
                        "name": "contestId",
                        "description": "contest id to filter by",
                        "required": false,
                        "type": "integer",
                        "format": "int32"
                    }
                ],
                "responses": {
                    "200": {
                        "description": "An array of solutions",
                        "schema": {
                            "type": "array",
                            "items": {
                                "$ref": "#/definitions/Solution"
                            }
                        }
                    },
                    "403": {
                        "description": "User unauthorized"
                    },
                    "default": {
                        "description": "Unexpected error",
                        "schema": {
                            "$ref": "#/definitions/Error"
                        }
                    }
                },
                "security": [
                    {
                        "api_key": []
                    },
                    {
                        "codr_auth": [
                            "view_solutions"
                        ]
                    }
                ]
            },
            "post": {
                "tags": [
                    "solutions"
                ],
                "summary": "Create a new solution",
                "operationId": "createSolution",
                "description": "Store a new solution into the system\n",
                "consumes": [
                    "application/json",
                    "application/xml"
                ],
                "produces": [
                    "application/json",
                    "application/xml"
                ],
                "parameters": [
                    {
                        "in": "body",
                        "name": "body",
                        "description": "solution object that needs to be added",
                        "required": true,
                        "schema": {
                            "$ref": "#/definitions/Solution"
                        }
                    }
                ],
                "responses": {
                    "200": {
                        "description": "Operation successful"
                    },
                    "default": {
                        "description": "Unexpected error",
                        "schema": {
                            "$ref": "#/definitions/Error"
                        }
                    }
                }
            }
        },
        "/solutions/{id}": {
            "get": {
                "tags": [
                    "solutions"
                ],
                "summary": "Solution information",
                "description": "Retrieve information for the solution with id\n",
                "operationId": "getSolutionById",
                "produces": [
                    "application/json",
                    "application/xml"
                ],
                "parameters": [
                    {
                        "in": "path",
                        "name": "id",
                        "description": "id for the solution to be retrieved",
                        "required": true,
                        "type": "integer",
                        "format": "int64"
                    }
                ],
                "responses": {
                    "404": {
                        "description": "solution not found"
                    }
                },
                "security": [
                    {
                        "api_key": []
                    },
                    {
                        "codr_auth": [
                            "view_solutions"
                        ]
                    }
                ]
            },
            "put": {
                "tags": [
                    "solutions"
                ],
                "summary": "Update solution",
                "description": "Update information regardin a solution. This can only be done by the  logged in user\n",
                "operationId": "updateSolution",
                "produces": [
                    "application/json",
                    "application/xml"
                ],
                "parameters": [
                    {
                        "in": "path",
                        "name": "id",
                        "description": "solution id to be deleted",
                        "required": true,
                        "type": "integer",
                        "format": "int64"
                    },
                    {
                        "in": "body",
                        "name": "body",
                        "description": "Updated solution object",
                        "required": false,
                        "schema": {
                            "$ref": "#/definitions/User"
                        }
                    }
                ],
                "responses": {
                    "400": {
                        "description": "Invalid solution supplied"
                    },
                    "403": {
                        "description": "User unauthorized"
                    },
                    "404": {
                        "description": "solution not found"
                    }
                },
                "security": [
                    {
                        "api_key": []
                    },
                    {
                        "codr_auth": [
                            "view_solutions"
                        ]
                    }
                ]
            },
            "delete": {
                "tags": [
                    "solutions"
                ],
                "summary": "Delete solution",
                "description": "Delete an existent solution. This can only be done by the logged in user\n",
                "operationId": "deleteSolution",
                "produces": [
                    "application/json",
                    "application/xml"
                ],
                "parameters": [
                    {
                        "in": "path",
                        "name": "id",
                        "description": "id of the solution to be deleted",
                        "required": true,
                        "type": "integer",
                        "format": "int64"
                    }
                ],
                "responses": {
                    "400": {
                        "description": "Invalid solution supplied"
                    },
                    "403": {
                        "description": "User unauthorized"
                    },
                    "404": {
                        "description": "solution not found"
                    }
                },
                "security": [
                    {
                        "api_key": []
                    },
                    {
                        "codr_auth": [
                            "view_solutions"
                        ]
                    }
                ]
            }
        },
        "/recommendations": {
            "get": {
                "tags": [
                    "recommendations"
                ],
                "summary": "Recommendations Information",
                "description": "Retrieve recommendations based on your preferences and *CoDR* interaction experience\n",
                "operationId": "getRecommendations",
                "produces": [
                    "application/json",
                    "application/xml"
                ],
                "responses": {
                    "403": {
                        "description": "User unauthorized"
                    },
                    "404": {
                        "description": "Solution not found"
                    }
                },
                "security": [
                    {
                        "api_key": []
                    },
                    {
                        "codr_auth": [
                            "view_recommendations"
                        ]
                    }
                ]
            }
        }
    },
    "securityDefinitions": {
        "api_key": {
            "type": "apiKey",
            "name": "api_key",
            "in": "header"
        },
        "codr_auth": {
            "type": "oauth2",
            "authorizationUrl": "http://students.info.uaic.ro/~victor.luncasu/CoDR/api/oauth/dialog",
            "flow": "implicit",
            "scopes": {
                "view_solutions": "View solutions on different contests",
                "view_recommendations": "View recommendations based on your user profile"
            }
        }
    },
    "definitions": {
        "User": {
            "type": "object",
            "properties": {
                "username": {
                    "type": "string",
                    "description": "User handle",
                    "example": "vluncasu"
                },
                "email": {
                    "type": "string",
                    "description": "User email address",
                    "example": "victor.luncasu@info.uaic.ro"
                },
                "interests": {
                    "type": "array",
                    "items": {
                        "$ref": "#/definitions/Tag"
                    },
                    "description": "A list of interests that the user has",
                    "example": [
                        {
                            "name": "HTML5",
                            "description": "Learn How You Can Create Awesome Websites Using HTML5. Learn Basic Concepts Of A Markup Language, Basic Building Blocks Of Web Design And Style."
                        }
                    ]
                }
            }
        },
        "Tag": {
            "type": "object",
            "properties": {
                "name": {
                    "type": "string",
                    "description": "Name of tag",
                    "example": "HTML5"
                },
                "description": {
                    "type": "string",
                    "description": "Description of tag",
                    "example": "Learn How You Can Create Awesome Websites Using HTML5. Learn Basic Concepts Of A Markup Language, Basic Building Blocks Of Web Design And Style."
                }
            }
        },
        "Category": {
            "type": "object",
            "properties": {
                "id": {
                    "type": "integer",
                    "format": "int64",
                    "description": "Category id",
                    "example": 666013
                },
                "name": {
                    "type": "string",
                    "description": "Name of category",
                    "example": "HTML5 and CSS"
                }
            }
        },
        "Solution": {
            "type": "object",
            "properties": {
                "id": {
                    "type": "integer",
                    "format": "int64",
                    "description": "Solution id",
                    "example": 13
                },
                "language": {
                    "type": "string",
                    "description": "Programming language of the solution",
                    "example": "Markup"
                },
                "codeRepository": {
                    "type": "string",
                    "description": "Url to the code repository where solution can be found",
                    "example": "https://github.com/h5bp/html5-boilerplate1"
                },
                "submissionDate": {
                    "type": "string",
                    "format": "date",
                    "description": "Date at which the solution was submitted",
                    "example": "2016-12-17T00:00:00.000Z"
                },
                "contestId": {
                    "type": "string",
                    "description": "Contest id of the submitted solution",
                    "example": 666
                }
            }
        },
        "Contest": {
            "type": "object",
            "properties": {
                "id": {
                    "type": "integer",
                    "format": "int64",
                    "description": "Id of contest",
                    "example": 666
                },
                "name": {
                    "type": "string",
                    "description": "Name of contest",
                    "example": "Say Hello to HTML5 Elements"
                },
                "description": {
                    "type": "string",
                    "description": "Contest description",
                    "example": "To pass the test on this challenge, change your h1 element's text to say \"Hello World\" instead of \"Hello\". Then click the \"Run tests\" button."
                },
                "startDate": {
                    "type": "string",
                    "format": "date",
                    "description": "Date on which the contest begins",
                    "example": "2016-12-17T00:00:00.000Z"
                },
                "endDate": {
                    "type": "string",
                    "format": "date",
                    "description": "Date on which the contest ends",
                    "example": "2016-12-20T00:00:00.000Z"
                },
                "numberOfParticipants": {
                    "type": "integer",
                    "format": "int64",
                    "description": "Number of participants in the contest",
                    "example": 13
                },
                "acceptance": {
                    "type": "number",
                    "format": "float",
                    "description": "Acceptance rate for the contest",
                    "example": 0.66
                },
                "difficulty": {
                    "type": "integer",
                    "format": "int32",
                    "description": "Difficulty of the contest",
                    "example": 1
                },
                "tags": {
                    "type": "array",
                    "items": {
                        "$ref": "#/definitions/Tag"
                    },
                    "example": [
                        {
                            "name": "HTML5",
                            "description": "Learn How You Can Create Awesome Websites Using HTML5. Learn Basic Concepts Of A Markup Language, Basic Building Blocks Of Web Design And Style."
                        },
                        {
                            "name": "CSS",
                            "description": "CSS stands for Cascading Style Sheets. CSS describes how HTML elements are to be displayed on screen, paper, or in other media. CSS saves a lot of work. It can control the layout of multiple web pages all at once."
                        }
                    ]
                },
                "category": {
                    "$ref": "#/definitions/Category"
                }
            }
        },
        "Error": {
            "type": "object",
            "properties": {
                "code": {
                    "type": "integer",
                    "format": "int64",
                    "example": 404
                },
                "message": {
                    "type": "string",
                    "example": "Not Found"
                },
                "fields": {
                    "type": "string",
                    "example": "CannotFindObjectInQueue"
                }
            }
        }
    }
}